cat TestDiplomacy.tmp
......
----------------------------------------------------------------------
Ran 6 tests in 0.001s

OK
Name               Stmts   Miss Branch BrPart  Cover   Missing
--------------------------------------------------------------
Diplomacy.py          70      0     54      0   100%
TestDiplomacy.py      36      0      0      0   100%
--------------------------------------------------------------
TOTAL                106      0     54      0   100%